37 4985 238
43 4911 238
70 4909 238
78 4888 238
121 4821 238
195 4800 238
237 4761 238
246 4619 238
266 4613 238
287 4609 238
291 4597 238
395 4577 238
407 4510 238
408 4472 238
430 4439 238
455 4437 238
481 4427 238
517 4356 238
521 4351 238
540 4302 238
551 4230 238
561 4204 238
578 4183 238
606 4099 238
770 4083 238
809 4052 238
816 4030 238
860 4015 238
862 4011 238
892 3954 238
929 3857 238
957 3803 238
1058 3800 238
1084 3799 238
1122 3795 238
1210 3792 238
1254 3756 238
1274 3718 238
1278 3705 217
1289 3676 217
1301 3647 217
1344 3644 217
1347 3579 217
1364 3571 217
1391 3559 217
1403 3529 217
1409 3502 217
1454 3489 217
1540 3487 217
1603 3478 217
1612 3434 217
1630 3401 217
1647 3386 217
1675 3313 217
1723 3310 217
1791 3259 217
1796 3159 217
1887 3155 217
1890 3106 217
1941 3103 217
1970 3093 217
1978 3092 217
1999 3063 217
2002 3023 217
2012 3010 217
2039 2945 217
2054 2913 209
2062 2904 209
2063 2900 209
2170 2845 209
2186 2835 209
2210 2815 209
2239 2796 209
2345 2722 209
2381 2620 209
2394 2613 209
2458 2604 209
2486 2604 178
2500 2594 178
2570 2578 147
3811 991117 525
8823 982433 525
11981 971792 525
14862 970098 525
22131 967780 525
25329 963326 525
30071 962462 525
36987 961825 525
40098 953192 525
42201 951763 525
43511 950561 525
44530 942885 525
59480 941237 525
75030 936165 525
75761 932360 525
85932 930471 525
103478 930181 525
109232 919098 525
113268 915631 525
113937 913173 525
120189 892278 525
123991 888309 525
126338 888028 525
138246 872130 525
152031 871741 525
157286 857784 525
162472 855673 525
166355 845787 525
168076 845225 525
172957 843179 525
198383 838915 525
201582 837945 525
230151 837026 509
240578 828501 509
244834 820248 509
253588 817190 509
253750 813607 509
264623 809512 509
265594 807889 509
266654 796720 509
274810 794956 509
278710 794082 509
291705 786552 509
296023 785976 509
307926 785517 509
310009 784518 509
312380 782228 509
313991 777674 509
314643 775694 509
316086 771483 509
319481 756528 509
320520 743876 509
324386 742176 509
354040 736442 509
361633 735263 509
362579 727181 509
367960 722425 509
382581 722098 509
387203 714223 509
389500 692454 509
390997 688693 509
393852 682882 509
411506 669958 509
417938 664686 509
421300 664298 509
427474 657470 509
439079 637743 509
459551 615595 470
464336 602163 470
467346 587057 470
469093 566907 470
481749 565570 470
482185 554870 470
484926 552542 470
487055 550331 470
491294 549024 470
494862 545923 470
496964 542084 470
515486 538508 439
522121 530996 408