1 10 20
10 1 20
100 200 125
200 100 125
201 210 89
210 201 89
900 1000 174
1000 900 174
35 59 113
54 35 113
25 64 113
5312 6043 236
6043 5312 236
8326 8336 190
8336 8326 190
99 991 179
493 439 142
999999 999999 259
15 10 18
10 15 18
1286 6665 262
1781 7350 262
3421 4499 238
3220 8216 262
4370 5307 215
8741 7169 252
2600 5168 238
7430 8814 252
5052 8303 262
1566 9370 262
9711 2067 262
8116 2292 262
5610 7579 262
315964 810201 509
442748 984204 525
316283 357923 441
561441 992776 525
449438 609887 470
248534 829076 509
650420 953113 525
133254 442781 449
873426 918796 476
622304 827981 509
435132 998236 525
514442 873625 525
374123 677052 509
344920 569237 470
109364 785386 509
127240 748422 509
101395 887290 525
186481 859304 525
151889 547723 470
357183 492220 449
133156 687167 509
617112 687094 509
826875 863287 525
401887 613706 470
180141 752025 509
178376 430645 449
923097 947695 507
186307 798630 509
367393 415231 449
192630 218837 386
728624 917713 525
155624 182566 383
494564 593191 470
693152 804083 504
715238 732689 411
264340 486462 449
231164 238925 381
133003 841636 525
759342 851027 525
150257 469149 449
389870 912855 525
970457 975813 458
279377 839049 525
598458 827866 509
954763 982128 458
348237 800199 509
410811 624169 470
177937 493893 449
152380 219681 386
70446 434950 449
227418 452072 449
670984 683941 385
862351 827884 525
729344 320027 509
136952 153201 375
39291 810022 509
377028 759226 509
745561 457392 509
895784 832508 525
435841 766531 509
137793 691447 509
962121 779108 525
524990 553280 452
800697 542949 509
501181 985524 525
460129 12666 449
53123 986877 525
779377 510888 509
965232 651695 525
537850 136029 470
672232 987709 525
176439 203535 365
318998 923393 525
130765 121626 344
781517 328920 509
690729 690727 199
869252 869259 189
229319 229317 200
703092 703093 155
438550 438549 175
402768 402757 162
799143 799149 194
668802 668803 111
