1 10 20
100 200 125
201 210 89
900 1000 174
2 2 2
12335 123423 354
361909 573384 470
532915 905917 525
304384 199750 443
982328 55917 525
525384 474175 470
841597 737591 525
46273 648923 509
653923 47293 509
738232 47293 509
3823 323245 443
87989 898983 525
128 121324 354
65739 254291 443
829513 958813 525
261006 869617 525
810868 880351 525
6325 635756 509
269330 8422 443
853443 908785 445
370252 265871 441
743555 582889 509
528766 566505 452
266046 337916 407
855751 949954 507
571517 781464 509
65729 647294 509
812923 61659 509
245800 412723 449
573456 902882 525
10500 479483 449
469326 756030 509
814618 55086 509
82258 299988 443
743144 165442 509
913145 585978 525
134855 152082 375
679317 892387 525
824077 770369 468
129705 542949 470
580310 81847 470
647292 635283 416
180530 603418 470
765814 271080 509
673912 284920 509
739504 622961 509
560578 911088 525
716823 79276 509
233278 931863 525
839506 546681 525
163824 372842 443
27391 312516 443
209895 169540 373
255105 39353 443
294109 797555 509
727101 459899 509
124 56738 340
647293 482934 509
512573 674747 509
559655 694769 509
892889 707747 525
11877 210723 383
472930 48293 449
695652 177247 509
141138 807080 509
873637 106803 525
13752 799232 509
47293 898231 525
49283 392842 443
478 472948 449
7989 567676 470
37181 474923 449
63821 348592 443
628307 29963 509
995488 390946 525
482930 382942 449
35 573294 470
4627 73829 340
27492 472839 449
38293 328042 443
328494 758392 509
670673 197671 509
360227 401232 436
628665 106933 509
562823 849233 525
428303 472932 444
231 424355 449
2324 533323 470
64202 482921 449
82930 472932 449
6429 372941 443
472934 748213 509
4729 427932 449
67684 372984 443
7482 384929 443
647282 982983 525
67429 238421 443
449012 82999 449
680677 130682 509
664 234241 443
2424 424822 449
2424 422156 449
9203 472941 449
467284 472839 413
